<?xml version="1.0" encoding="UTF-8" standalone="no"?>
<!DOCTYPE svg PUBLIC "-//W3C//DTD SVG 1.1//EN"
 "http://www.w3.org/Graphics/SVG/1.1/DTD/svg11.dtd">
<!-- Generated by graphviz version 2.28.0 (20120213.2139)
 -->
<!-- Title: models_diagram Pages: 1 -->
<svg width="791pt" height="826pt"
 viewBox="0.00 0.00 791.00 826.00" xmlns="http://www.w3.org/2000/svg" xmlns:xlink="http://www.w3.org/1999/xlink">
<g id="graph1" class="graph" transform="scale(1 1) rotate(0) translate(4 822)">
<title>models_diagram</title>
<polygon fill="white" stroke="white" points="-4,5 -4,-822 788,-822 788,5 -4,5"/>
<!-- _diagram_info -->
<g id="node1" class="node"><title>_diagram_info</title>
<text text-anchor="start" x="7.31226" y="-785" font-family="Times,serif" font-size="13.00">Models diagram</text>
<text text-anchor="start" x="7.31226" y="-769.4" font-family="Times,serif" font-size="13.00">Date: Apr 02 2012 &#45; 14:14</text>
<text text-anchor="start" x="7.31226" y="-753.8" font-family="Times,serif" font-size="13.00">Migration version: 20120331071043</text>
<text text-anchor="start" x="7.31226" y="-738.2" font-family="Times,serif" font-size="13.00">Generated by RailRoady 1.0.7</text>
<text text-anchor="start" x="7.31226" y="-722.6" font-family="Times,serif" font-size="13.00">http://railroady.prestonlee.com</text>
</g>
<!-- Ability -->
<g id="node2" class="node"><title>Ability</title>
<polygon fill="none" stroke="black" points="225.166,-734.2 225.166,-783.8 280.834,-783.8 280.834,-734.2 225.166,-734.2"/>
<text text-anchor="middle" x="253" y="-765.8" font-family="Times,serif" font-size="14.00">Ability</text>
<polyline fill="none" stroke="black" points="225.166,-759 280.834,-759 "/>
<text text-anchor="middle" x="253" y="-741" font-family="Times,serif" font-size="14.00"> </text>
</g>
<!-- Asset -->
<g id="node3" class="node"><title>Asset</title>
<polyline fill="none" stroke="black" points="221.433,-0.4 340.567,-0.4 "/>
<path fill="none" stroke="black" d="M340.567,-0.4C346.567,-0.4 352.567,-6.4 352.567,-12.4"/>
<polyline fill="none" stroke="black" points="352.567,-12.4 352.567,-71.6 "/>
<path fill="none" stroke="black" d="M352.567,-71.6C352.567,-77.6 346.567,-83.6 340.567,-83.6"/>
<polyline fill="none" stroke="black" points="340.567,-83.6 221.433,-83.6 "/>
<path fill="none" stroke="black" d="M221.433,-83.6C215.433,-83.6 209.433,-77.6 209.433,-71.6"/>
<polyline fill="none" stroke="black" points="209.433,-71.6 209.433,-12.4 "/>
<path fill="none" stroke="black" d="M209.433,-12.4C209.433,-6.4 215.433,-0.4 221.433,-0.4"/>
<text text-anchor="middle" x="281" y="-65.6" font-family="Times,serif" font-size="14.00">Asset</text>
<polyline fill="none" stroke="black" points="209.433,-58.8 352.567,-58.8 "/>
<text text-anchor="start" x="217.433" y="-40.8" font-family="Times,serif" font-size="14.00">file :string</text>
<text text-anchor="start" x="217.433" y="-24" font-family="Times,serif" font-size="14.00">created_at :timestamp</text>
<text text-anchor="start" x="217.433" y="-7.2" font-family="Times,serif" font-size="14.00">updated_at :timestamp</text>
</g>
<!-- Chapter -->
<g id="node4" class="node"><title>Chapter</title>
<polyline fill="none" stroke="black" points="221.433,-274.6 340.567,-274.6 "/>
<path fill="none" stroke="black" d="M340.567,-274.6C346.567,-274.6 352.567,-280.6 352.567,-286.6"/>
<polyline fill="none" stroke="black" points="352.567,-286.6 352.567,-379.4 "/>
<path fill="none" stroke="black" d="M352.567,-379.4C352.567,-385.4 346.567,-391.4 340.567,-391.4"/>
<polyline fill="none" stroke="black" points="340.567,-391.4 221.433,-391.4 "/>
<path fill="none" stroke="black" d="M221.433,-391.4C215.433,-391.4 209.433,-385.4 209.433,-379.4"/>
<polyline fill="none" stroke="black" points="209.433,-379.4 209.433,-286.6 "/>
<path fill="none" stroke="black" d="M209.433,-286.6C209.433,-280.6 215.433,-274.6 221.433,-274.6"/>
<text text-anchor="middle" x="281" y="-373.4" font-family="Times,serif" font-size="14.00">Chapter</text>
<polyline fill="none" stroke="black" points="209.433,-366.6 352.567,-366.6 "/>
<text text-anchor="start" x="217.433" y="-348.6" font-family="Times,serif" font-size="14.00">title :string</text>
<text text-anchor="start" x="217.433" y="-331.8" font-family="Times,serif" font-size="14.00">description :text</text>
<text text-anchor="start" x="217.433" y="-315" font-family="Times,serif" font-size="14.00">sequence :integer</text>
<text text-anchor="start" x="217.433" y="-298.2" font-family="Times,serif" font-size="14.00">created_at :timestamp</text>
<text text-anchor="start" x="217.433" y="-281.4" font-family="Times,serif" font-size="14.00">updated_at :timestamp</text>
</g>
<!-- Question -->
<g id="node7" class="node"><title>Question</title>
<polyline fill="none" stroke="black" points="221.433,-120.6 340.567,-120.6 "/>
<path fill="none" stroke="black" d="M340.567,-120.6C346.567,-120.6 352.567,-126.6 352.567,-132.6"/>
<polyline fill="none" stroke="black" points="352.567,-132.6 352.567,-225.4 "/>
<path fill="none" stroke="black" d="M352.567,-225.4C352.567,-231.4 346.567,-237.4 340.567,-237.4"/>
<polyline fill="none" stroke="black" points="340.567,-237.4 221.433,-237.4 "/>
<path fill="none" stroke="black" d="M221.433,-237.4C215.433,-237.4 209.433,-231.4 209.433,-225.4"/>
<polyline fill="none" stroke="black" points="209.433,-225.4 209.433,-132.6 "/>
<path fill="none" stroke="black" d="M209.433,-132.6C209.433,-126.6 215.433,-120.6 221.433,-120.6"/>
<text text-anchor="middle" x="281" y="-219.4" font-family="Times,serif" font-size="14.00">Question</text>
<polyline fill="none" stroke="black" points="209.433,-212.6 352.567,-212.6 "/>
<text text-anchor="start" x="217.433" y="-194.6" font-family="Times,serif" font-size="14.00">title :string</text>
<text text-anchor="start" x="217.433" y="-177.8" font-family="Times,serif" font-size="14.00">answer :text</text>
<text text-anchor="start" x="217.433" y="-161" font-family="Times,serif" font-size="14.00">sequence :integer</text>
<text text-anchor="start" x="217.433" y="-144.2" font-family="Times,serif" font-size="14.00">created_at :timestamp</text>
<text text-anchor="start" x="217.433" y="-127.4" font-family="Times,serif" font-size="14.00">updated_at :timestamp</text>
</g>
<!-- Chapter&#45;&gt;Question -->
<g id="edge2" class="edge"><title>Chapter&#45;&gt;Question</title>
<path fill="none" stroke="#2299a5" d="M281,-266.509C281,-260.335 281,-254.068 281,-247.873"/>
<ellipse fill="none" stroke="#2299a5" cx="281" cy="-270.535" rx="4" ry="4"/>
<polygon fill="#2299a5" stroke="#2299a5" points="281,-247.546 285.5,-237.546 281,-242.546 281,-237.546 281,-237.546 281,-237.546 281,-242.546 276.5,-237.546 281,-247.546 281,-247.546"/>
</g>
<!-- Event -->
<g id="node5" class="node"><title>Event</title>
<polyline fill="none" stroke="black" points="481.433,-717.4 600.567,-717.4 "/>
<path fill="none" stroke="black" d="M600.567,-717.4C606.567,-717.4 612.567,-723.4 612.567,-729.4"/>
<polyline fill="none" stroke="black" points="612.567,-729.4 612.567,-788.6 "/>
<path fill="none" stroke="black" d="M612.567,-788.6C612.567,-794.6 606.567,-800.6 600.567,-800.6"/>
<polyline fill="none" stroke="black" points="600.567,-800.6 481.433,-800.6 "/>
<path fill="none" stroke="black" d="M481.433,-800.6C475.433,-800.6 469.433,-794.6 469.433,-788.6"/>
<polyline fill="none" stroke="black" points="469.433,-788.6 469.433,-729.4 "/>
<path fill="none" stroke="black" d="M469.433,-729.4C469.433,-723.4 475.433,-717.4 481.433,-717.4"/>
<text text-anchor="middle" x="541" y="-782.6" font-family="Times,serif" font-size="14.00">Event</text>
<polyline fill="none" stroke="black" points="469.433,-775.8 612.567,-775.8 "/>
<text text-anchor="start" x="477.433" y="-757.8" font-family="Times,serif" font-size="14.00">description :text</text>
<text text-anchor="start" x="477.433" y="-741" font-family="Times,serif" font-size="14.00">created_at :timestamp</text>
<text text-anchor="start" x="477.433" y="-724.2" font-family="Times,serif" font-size="14.00">updated_at :timestamp</text>
</g>
<!-- Organization -->
<g id="node6" class="node"><title>Organization</title>
<polyline fill="none" stroke="black" points="310.388,-700.6 439.612,-700.6 "/>
<path fill="none" stroke="black" d="M439.612,-700.6C445.612,-700.6 451.612,-706.6 451.612,-712.6"/>
<polyline fill="none" stroke="black" points="451.612,-712.6 451.612,-805.4 "/>
<path fill="none" stroke="black" d="M451.612,-805.4C451.612,-811.4 445.612,-817.4 439.612,-817.4"/>
<polyline fill="none" stroke="black" points="439.612,-817.4 310.388,-817.4 "/>
<path fill="none" stroke="black" d="M310.388,-817.4C304.388,-817.4 298.388,-811.4 298.388,-805.4"/>
<polyline fill="none" stroke="black" points="298.388,-805.4 298.388,-712.6 "/>
<path fill="none" stroke="black" d="M298.388,-712.6C298.388,-706.6 304.388,-700.6 310.388,-700.6"/>
<text text-anchor="middle" x="375" y="-799.4" font-family="Times,serif" font-size="14.00">Organization</text>
<polyline fill="none" stroke="black" points="298.388,-792.6 451.612,-792.6 "/>
<text text-anchor="start" x="306.388" y="-774.6" font-family="Times,serif" font-size="14.00">name :string</text>
<text text-anchor="start" x="306.388" y="-757.8" font-family="Times,serif" font-size="14.00">technical_contact :string</text>
<text text-anchor="start" x="306.388" y="-741" font-family="Times,serif" font-size="14.00">information :text</text>
<text text-anchor="start" x="306.388" y="-724.2" font-family="Times,serif" font-size="14.00">created_at :datetime</text>
<text text-anchor="start" x="306.388" y="-707.4" font-family="Times,serif" font-size="14.00">updated_at :datetime</text>
</g>
<!-- Section -->
<g id="node8" class="node"><title>Section</title>
<polyline fill="none" stroke="black" points="226.495,-496 335.505,-496 "/>
<path fill="none" stroke="black" d="M335.505,-496C341.505,-496 347.505,-502 347.505,-508"/>
<polyline fill="none" stroke="black" points="347.505,-508 347.505,-584 "/>
<path fill="none" stroke="black" d="M347.505,-584C347.505,-590 341.505,-596 335.505,-596"/>
<polyline fill="none" stroke="black" points="335.505,-596 226.495,-596 "/>
<path fill="none" stroke="black" d="M226.495,-596C220.495,-596 214.495,-590 214.495,-584"/>
<polyline fill="none" stroke="black" points="214.495,-584 214.495,-508 "/>
<path fill="none" stroke="black" d="M214.495,-508C214.495,-502 220.495,-496 226.495,-496"/>
<text text-anchor="middle" x="281" y="-578" font-family="Times,serif" font-size="14.00">Section</text>
<polyline fill="none" stroke="black" points="214.495,-571.2 347.505,-571.2 "/>
<text text-anchor="start" x="222.495" y="-553.2" font-family="Times,serif" font-size="14.00">title :string</text>
<text text-anchor="start" x="222.495" y="-536.4" font-family="Times,serif" font-size="14.00">commun :boolean</text>
<text text-anchor="start" x="222.495" y="-519.6" font-family="Times,serif" font-size="14.00">created_at :datetime</text>
<text text-anchor="start" x="222.495" y="-502.8" font-family="Times,serif" font-size="14.00">updated_at :datetime</text>
</g>
<!-- Organization&#45;&gt;Section -->
<g id="edge4" class="edge"><title>Organization&#45;&gt;Section</title>
<path fill="none" stroke="#700250" d="M346.016,-692.941C333.56,-664.981 319.115,-632.557 307.009,-605.382"/>
<ellipse fill="none" stroke="#700250" cx="347.686" cy="-696.69" rx="4.00002" ry="4.00002"/>
<polygon fill="#700250" stroke="#700250" points="306.901,-605.139 306.942,-594.173 304.866,-600.572 302.831,-596.004 302.831,-596.004 302.831,-596.004 304.866,-600.572 298.721,-597.836 306.901,-605.139 306.901,-605.139"/>
</g>
<!-- User -->
<g id="node10" class="node"><title>User</title>
<polyline fill="none" stroke="black" points="377.722,-428.8 558.278,-428.8 "/>
<path fill="none" stroke="black" d="M558.278,-428.8C564.278,-428.8 570.278,-434.8 570.278,-440.8"/>
<polyline fill="none" stroke="black" points="570.278,-440.8 570.278,-651.2 "/>
<path fill="none" stroke="black" d="M570.278,-651.2C570.278,-657.2 564.278,-663.2 558.278,-663.2"/>
<polyline fill="none" stroke="black" points="558.278,-663.2 377.722,-663.2 "/>
<path fill="none" stroke="black" d="M377.722,-663.2C371.722,-663.2 365.722,-657.2 365.722,-651.2"/>
<polyline fill="none" stroke="black" points="365.722,-651.2 365.722,-440.8 "/>
<path fill="none" stroke="black" d="M365.722,-440.8C365.722,-434.8 371.722,-428.8 377.722,-428.8"/>
<text text-anchor="middle" x="468" y="-645.2" font-family="Times,serif" font-size="14.00">User</text>
<polyline fill="none" stroke="black" points="365.722,-638.4 570.278,-638.4 "/>
<text text-anchor="start" x="373.722" y="-620.4" font-family="Times,serif" font-size="14.00">email :string</text>
<text text-anchor="start" x="373.722" y="-603.6" font-family="Times,serif" font-size="14.00">encrypted_password :string</text>
<text text-anchor="start" x="373.722" y="-586.8" font-family="Times,serif" font-size="14.00">reset_password_token :string</text>
<text text-anchor="start" x="373.722" y="-570" font-family="Times,serif" font-size="14.00">reset_password_sent_at :datetime</text>
<text text-anchor="start" x="373.722" y="-553.2" font-family="Times,serif" font-size="14.00">remember_created_at :datetime</text>
<text text-anchor="start" x="373.722" y="-536.4" font-family="Times,serif" font-size="14.00">current_sign_in_at :datetime</text>
<text text-anchor="start" x="373.722" y="-519.6" font-family="Times,serif" font-size="14.00">last_sign_in_at :datetime</text>
<text text-anchor="start" x="373.722" y="-502.8" font-family="Times,serif" font-size="14.00">current_sign_in_ip :string</text>
<text text-anchor="start" x="373.722" y="-486" font-family="Times,serif" font-size="14.00">last_sign_in_ip :string</text>
<text text-anchor="start" x="373.722" y="-469.2" font-family="Times,serif" font-size="14.00">created_at :datetime</text>
<text text-anchor="start" x="373.722" y="-452.4" font-family="Times,serif" font-size="14.00">updated_at :datetime</text>
<text text-anchor="start" x="373.722" y="-435.6" font-family="Times,serif" font-size="14.00">role :string</text>
</g>
<!-- Organization&#45;&gt;User -->
<g id="edge6" class="edge"><title>Organization&#45;&gt;User</title>
<path fill="none" stroke="#51736d" d="M403.7,-692.885C406.562,-686.391 409.53,-679.657 412.551,-672.804"/>
<ellipse fill="none" stroke="#51736d" cx="402.026" cy="-696.683" rx="4.00002" ry="4.00002"/>
<polygon fill="#51736d" stroke="#51736d" points="412.664,-672.548 420.815,-665.212 414.68,-667.972 416.697,-663.397 416.697,-663.397 416.697,-663.397 414.68,-667.972 412.579,-661.582 412.664,-672.548 412.664,-672.548"/>
</g>
<!-- Question&#45;&gt;Asset -->
<g id="edge8" class="edge"><title>Question&#45;&gt;Asset</title>
<path fill="none" stroke="#5d26c2" d="M281,-112.22C281,-106.145 281,-100.052 281,-94.1368"/>
<ellipse fill="none" stroke="#5d26c2" cx="281" cy="-116.356" rx="4" ry="4"/>
<polygon fill="#5d26c2" stroke="#5d26c2" points="281,-93.7247 285.5,-83.7247 281,-88.7247 281,-83.7247 281,-83.7247 281,-83.7247 281,-88.7247 276.5,-83.7248 281,-93.7247 281,-93.7247"/>
</g>
<!-- Section&#45;&gt;Chapter -->
<g id="edge10" class="edge"><title>Section&#45;&gt;Chapter</title>
<path fill="none" stroke="#31b560" d="M281,-487.564C281,-460.991 281,-429.242 281,-401.528"/>
<ellipse fill="none" stroke="#31b560" cx="281" cy="-491.796" rx="4" ry="4"/>
<polygon fill="#31b560" stroke="#31b560" points="281,-401.517 285.5,-391.517 281,-396.517 281,-391.517 281,-391.517 281,-391.517 281,-396.517 276.5,-391.517 281,-401.517 281,-401.517"/>
</g>
<!-- Setting -->
<g id="node9" class="node"><title>Setting</title>
<polyline fill="none" stroke="black" points="642.388,-709 771.612,-709 "/>
<path fill="none" stroke="black" d="M771.612,-709C777.612,-709 783.612,-715 783.612,-721"/>
<polyline fill="none" stroke="black" points="783.612,-721 783.612,-797 "/>
<path fill="none" stroke="black" d="M783.612,-797C783.612,-803 777.612,-809 771.612,-809"/>
<polyline fill="none" stroke="black" points="771.612,-809 642.388,-809 "/>
<path fill="none" stroke="black" d="M642.388,-809C636.388,-809 630.388,-803 630.388,-797"/>
<polyline fill="none" stroke="black" points="630.388,-797 630.388,-721 "/>
<path fill="none" stroke="black" d="M630.388,-721C630.388,-715 636.388,-709 642.388,-709"/>
<text text-anchor="middle" x="707" y="-791" font-family="Times,serif" font-size="14.00">Setting</text>
<polyline fill="none" stroke="black" points="630.388,-784.2 783.612,-784.2 "/>
<text text-anchor="start" x="638.388" y="-766.2" font-family="Times,serif" font-size="14.00">technical_contact :string</text>
<text text-anchor="start" x="638.388" y="-749.4" font-family="Times,serif" font-size="14.00">information :text</text>
<text text-anchor="start" x="638.388" y="-732.6" font-family="Times,serif" font-size="14.00">created_at :timestamp</text>
<text text-anchor="start" x="638.388" y="-715.8" font-family="Times,serif" font-size="14.00">updated_at :timestamp</text>
</g>
</g>
</svg>
